-- Merging decision tree log ---
manifest
ADDED from E:\AndroidProjects\EVAPP\src29052018\android_av_app\bettervideoplayer\src\main\AndroidManifest.xml:1:1-5:12
INJECTED from E:\AndroidProjects\EVAPP\src29052018\android_av_app\bettervideoplayer\src\main\AndroidManifest.xml:1:1-5:12
INJECTED from E:\AndroidProjects\EVAPP\src29052018\android_av_app\bettervideoplayer\src\main\AndroidManifest.xml:1:1-5:12
INJECTED from E:\AndroidProjects\EVAPP\src29052018\android_av_app\bettervideoplayer\src\main\AndroidManifest.xml:1:1-5:12
INJECTED from E:\AndroidProjects\EVAPP\src29052018\android_av_app\bettervideoplayer\src\main\AndroidManifest.xml:1:1-5:12
INJECTED from E:\AndroidProjects\EVAPP\src29052018\android_av_app\bettervideoplayer\src\main\AndroidManifest.xml:1:1-5:12
INJECTED from E:\AndroidProjects\EVAPP\src29052018\android_av_app\bettervideoplayer\src\main\AndroidManifest.xml:1:1-5:12
	package
		ADDED from E:\AndroidProjects\EVAPP\src29052018\android_av_app\bettervideoplayer\src\main\AndroidManifest.xml:1:11-51
		INJECTED from E:\AndroidProjects\EVAPP\src29052018\android_av_app\bettervideoplayer\src\main\AndroidManifest.xml
		INJECTED from E:\AndroidProjects\EVAPP\src29052018\android_av_app\bettervideoplayer\src\main\AndroidManifest.xml
	android:versionName
		INJECTED from E:\AndroidProjects\EVAPP\src29052018\android_av_app\bettervideoplayer\src\main\AndroidManifest.xml
		ADDED from E:\AndroidProjects\EVAPP\src29052018\android_av_app\bettervideoplayer\src\main\AndroidManifest.xml:1:1-5:12
		INJECTED from E:\AndroidProjects\EVAPP\src29052018\android_av_app\bettervideoplayer\src\main\AndroidManifest.xml
	xmlns:android
		ADDED from E:\AndroidProjects\EVAPP\src29052018\android_av_app\bettervideoplayer\src\main\AndroidManifest.xml:1:1-5:12
	android:versionCode
		INJECTED from E:\AndroidProjects\EVAPP\src29052018\android_av_app\bettervideoplayer\src\main\AndroidManifest.xml
		ADDED from E:\AndroidProjects\EVAPP\src29052018\android_av_app\bettervideoplayer\src\main\AndroidManifest.xml:1:1-5:12
		INJECTED from E:\AndroidProjects\EVAPP\src29052018\android_av_app\bettervideoplayer\src\main\AndroidManifest.xml
application
ADDED from E:\AndroidProjects\EVAPP\src29052018\android_av_app\bettervideoplayer\src\main\AndroidManifest.xml:3:5-20
uses-sdk
INJECTED from E:\AndroidProjects\EVAPP\src29052018\android_av_app\bettervideoplayer\src\main\AndroidManifest.xml reason: use-sdk injection requested
INJECTED from E:\AndroidProjects\EVAPP\src29052018\android_av_app\bettervideoplayer\src\main\AndroidManifest.xml
INJECTED from E:\AndroidProjects\EVAPP\src29052018\android_av_app\bettervideoplayer\src\main\AndroidManifest.xml
INJECTED from E:\AndroidProjects\EVAPP\src29052018\android_av_app\bettervideoplayer\src\main\AndroidManifest.xml
INJECTED from E:\AndroidProjects\EVAPP\src29052018\android_av_app\bettervideoplayer\src\main\AndroidManifest.xml
	android:targetSdkVersion
		INJECTED from E:\AndroidProjects\EVAPP\src29052018\android_av_app\bettervideoplayer\src\main\AndroidManifest.xml
		ADDED from E:\AndroidProjects\EVAPP\src29052018\android_av_app\bettervideoplayer\src\main\AndroidManifest.xml
		INJECTED from E:\AndroidProjects\EVAPP\src29052018\android_av_app\bettervideoplayer\src\main\AndroidManifest.xml
	android:minSdkVersion
		INJECTED from E:\AndroidProjects\EVAPP\src29052018\android_av_app\bettervideoplayer\src\main\AndroidManifest.xml
		ADDED from E:\AndroidProjects\EVAPP\src29052018\android_av_app\bettervideoplayer\src\main\AndroidManifest.xml
		INJECTED from E:\AndroidProjects\EVAPP\src29052018\android_av_app\bettervideoplayer\src\main\AndroidManifest.xml
